Chapter 2 Bulk RNA Sequencing | Bioconductor Annotation Resources
…
## # A tibble: 4 x 2
##   cell        n
##   <fct>   <int>
## 1 N052611     2
## 2 N061011     2
## 3 N080611     2
## 4 N61311      2

Today we’ll focus on the rows (genes) of the RNASeq experiment. In the airway
data, the ‘rowData’ are very simple and consist just of Ensembl gene identifiers

rowData(airway) %>%
  as_tibble(rownames = "Gene")

## # A tibble: 64,102 x 1
##    Gene           
##    <chr>          
##  1 ENSG00000000003
##  2 ENSG00000000005
##  3 ENSG00000000419
##  4 ENSG00000000457
##  5 ENSG00000000460
##  6 ENSG00000000938
##  7 ENSG00000000971
##  8 ENSG00000001036
##  9 ENSG00000001084
## 10 ENSG00000001167
## # … with 64,092 more rows
…
