Chapter 4 Discovering genomic coordinates | Bioconductor Annotation Resources
…
            Bioconductor Annotation Resources

Chapter 4 Discovering genomic coordinates

4.1 What do we want to do?

Load the annotation and tidy packages, and our work from the last chapter

library(EnsDb.Hsapiens.v75)
library(dplyr)
toptbl <- readRDS("toptbl.Rda")
toptbl

## # A tibble: 64,102 x 9
##    Gene  SYMBOL ENTREZID baseMean log2FoldChange  lfcSE  stat    pvalue
##    <chr> <chr>     <int>    <dbl>          <dbl>  <dbl> <dbl>     <dbl>
##  1 ENSG… SPARC…     8404     997.           4.57 0.184   24.9 2.22e-136
##  2 ENSG… CACNB2      783     495.           3.29 0.133   24.7 7.84e-135
##  3 ENSG… DUSP1      1843    3409.           2.95 0.121   24.3 3.67e-130
##  4 ENSG… SAMHD1    25939   12703.           3.77 0.155   24.2 9.58e-130
##  5 ENSG… MAOA       4128    2342.           3.35 0.142   23.7 1.10e-123
##  6 ENSG… GPX3       2878   12286.           3.73 0.166   22.5 4.62e-112
##  7 ENSG… STEAP2   261729    3009.           1.98 0.0900  22.0 5.77e-107
##  8 ENSG… NEXN      91624    5393.           2.04 0.0942  21.6 1.32e-103
##  9 ENSG… MT2A       4502    3656.           2.21 0.106   20.9 2.90e- 97
## 10 ENSG… ADAMT…     9510   30315.           2.35 0.116   20.3 3.26e- 91
## # … with 64,092 more rows, and 1 more variable: padj <dbl>
…
