Chapter 5 Gene sets | Bioconductor Annotation Resources
…
            Bioconductor Annotation Resources

Chapter 5 Gene sets

5.1 What do we want to do?

Return to our top table

toptbl <- readRDS("toptbl.Rda")
toptbl

## # A tibble: 64,102 x 9
##    Gene  SYMBOL ENTREZID baseMean log2FoldChange  lfcSE  stat    pvalue
##    <chr> <chr>     <int>    <dbl>          <dbl>  <dbl> <dbl>     <dbl>
##  1 ENSG… SPARC…     8404     997.           4.57 0.184   24.9 2.22e-136
##  2 ENSG… CACNB2      783     495.           3.29 0.133   24.7 7.84e-135
##  3 ENSG… DUSP1      1843    3409.           2.95 0.121   24.3 3.67e-130
##  4 ENSG… SAMHD1    25939   12703.           3.77 0.155   24.2 9.58e-130
##  5 ENSG… MAOA       4128    2342.           3.35 0.142   23.7 1.10e-123
##  6 ENSG… GPX3       2878   12286.           3.73 0.166   22.5 4.62e-112
##  7 ENSG… STEAP2   261729    3009.           1.98 0.0900  22.0 5.77e-107
##  8 ENSG… NEXN      91624    5393.           2.04 0.0942  21.6 1.32e-103
##  9 ENSG… MT2A       4502    3656.           2.21 0.106   20.9 2.90e- 97
## 10 ENSG… ADAMT…     9510   30315.           2.35 0.116   20.3 3.26e- 91
## # … with 64,092 more rows, and 1 more variable: padj <dbl>
…
Genes can belong to more than on GO category (e.g., participate in more than
one biological pathway). Use AnnotationDbi::select() to map between ENTREZID
and GO id; we’ll represent the result as a tibble for convenience

eggo <- AnnotationDbi::select(org.Hs.eg.db, toptbl$ENTREZID, "GO") %>%
  as_tibble()
eggo

## # A tibble: 364,454 x 4
##    ENTREZID GO         EVIDENCE ONTOLOGY
##    <chr>    <chr>      <chr>    <chr>   
##  1 8404     GO:0005509 IBA      MF      
##  2 8404     GO:0005515 IPI      MF      
##  3 8404     GO:0005518 IBA      MF      
##  4 8404     GO:0005576 HDA      CC      
##  5 8404     GO:0005615 HDA      CC      
##  6 8404     GO:0005615 IBA      CC      
##  7 8404     GO:0005788 TAS      CC      
##  8 8404     GO:0007165 IEA      BP      
##  9 8404     GO:0043687 TAS      BP      
## 10 8404     GO:0044267 TAS      BP      
## # … with 364,444 more rows

Let’s focus on the ‘biological process’ (BP) ontology, and not worry about
‘EVIDENCE’ (the type of evidence, e.g., experimental verification,
computational inference, …) that supports the classification of a particular
ENTREZ identifier to a particular GO identifier.

eggo <-
  eggo %>%
  dplyr::rename(GOID = "GO") %>%
  dplyr::select(-EVIDENCE) %>%
  dplyr::filter(ONTOLOGY %in% "BP") %>%
  dplyr::distinct()
eggo

## # A tibble: 132,810 x 3
##    ENTREZID GOID       ONTOLOGY
##    <chr>    <chr>      <chr>   
##  1 8404     GO:0007165 BP      
##  2 8404     GO:0043687 BP      
##  3 8404     GO:0044267 BP      
##  4 8404     GO:0099560 BP      
##  5 783      GO:0007268 BP      
##  6 783      GO:0007528 BP      
##  7 783      GO:0007601 BP      
##  8 783      GO:0051928 BP      
##  9 783      GO:0061337 BP      
## 10 783      GO:0070509 BP      
## # … with 132,800 more rows
…
Add terms and definitions to all rows of eggo

goinfo <- 
  AnnotationDbi::select(
    GO.db, eggo$GOID, c("TERM", "DEFINITION"), "GOID"
  ) %>% 
  as_tibble() %>%
  distinct()
goinfo

## # A tibble: 12,130 x 3
##    GOID     TERM                     DEFINITION                                 
##    <chr>    <chr>                    <chr>                                      
##  1 GO:0007… signal transduction      The cellular process in which a signal is …
##  2 GO:0043… post-translational prot… The process of covalently altering one or …
##  3 GO:0044… cellular protein metabo… The chemical reactions and pathways involv…
##  4 GO:0099… synaptic membrane adhes… The attachment of presynaptic membrane to …
##  5 GO:0007… chemical synaptic trans… The vesicular release of classical neurotr…
##  6 GO:0007… neuromuscular junction … A process that is carried out at the cellu…
##  7 GO:0007… visual perception        The series of events required for an organ…
##  8 GO:0051… positive regulation of … Any process that activates or increases th…
##  9 GO:0061… cardiac conduction       Transfer of an organized electrical impuls…
## 10 GO:0070… calcium ion import       The directed movement of calcium ions into…
## # … with 12,120 more rows

Use dplyr::left_join() to join all rows of eggo to their corresponding
term and definition…

eggoinfo <- left_join(eggo, goinfo, by = "GOID")
eggoinfo

## # A tibble: 132,810 x 5
##    ENTREZID GOID    ONTOLOGY TERM               DEFINITION                      
##    <chr>    <chr>   <chr>    <chr>              <chr>                           
##  1 8404     GO:000… BP       signal transducti… The cellular process in which a…
##  2 8404     GO:004… BP       post-translationa… The process of covalently alter…
##  3 8404     GO:004… BP       cellular protein … The chemical reactions and path…
##  4 8404     GO:009… BP       synaptic membrane… The attachment of presynaptic m…
##  5 783      GO:000… BP       chemical synaptic… The vesicular release of classi…
##  6 783      GO:000… BP       neuromuscular jun… A process that is carried out a…
##  7 783      GO:000… BP       visual perception  The series of events required f…
##  8 783      GO:005… BP       positive regulati… Any process that activates or i…
##  9 783      GO:006… BP       cardiac conduction Transfer of an organized electr…
## 10 783      GO:007… BP       calcium ion import The directed movement of calciu…
## # … with 132,800 more rows

…and even add the top table gene expression information

left_join(eggoinfo, toptbl, by = "ENTREZID")

## # A tibble: 155,800 x 13
##    ENTREZID GOID  ONTOLOGY TERM  DEFINITION Gene  SYMBOL baseMean log2FoldChange
##    <chr>    <chr> <chr>    <chr> <chr>      <chr> <chr>     <dbl>          <dbl>
##  1 8404     GO:0… BP       sign… The cellu… ENSG… SPARC…     997.           4.57
##  2 8404     GO:0… BP       post… The proce… ENSG… SPARC…     997.           4.57
##  3 8404     GO:0… BP       cell… The chemi… ENSG… SPARC…     997.           4.57
##  4 8404     GO:0… BP       syna… The attac… ENSG… SPARC…     997.           4.57
##  5 783      GO:0… BP       chem… The vesic… ENSG… CACNB2     495.           3.29
##  6 783      GO:0… BP       neur… A process… ENSG… CACNB2     495.           3.29
##  7 783      GO:0… BP       visu… The serie… ENSG… CACNB2     495.           3.29
##  8 783      GO:0… BP       posi… Any proce… ENSG… CACNB2     495.           3.29
##  9 783      GO:0… BP       card… Transfer … ENSG… CACNB2     495.           3.29
## 10 783      GO:0… BP       calc… The direc… ENSG… CACNB2     495.           3.29
## # … with 155,790 more rows, and 4 more variables: lfcSE <dbl>, stat <dbl>,
## #   pvalue <dbl>, padj <dbl>
…
Start by identifying the unique element / set combinations

elementsets <-
  eggo %>%
  dplyr::select(element = "ENTREZID", set = "GOID")

Then create a BiocSet from this relationship

es <- BiocSet_from_elementset(elementsets)
es

## class: BiocSet
## 
## es_element():
## # A tibble: 17,246 x 1
##   element
##   <chr>  
## 1 1890   
## 2 4205   
## 3 291    
## # … with 17,243 more rows
## 
## es_set():
## # A tibble: 12,130 x 1
##   set       
##   <chr>     
## 1 GO:0000002
## 2 GO:0000003
## 3 GO:0000012
## # … with 12,127 more rows
## 
## es_elementset() <active>:
## # A tibble: 132,810 x 2
##   element set       
##   <chr>   <chr>     
## 1 1890    GO:0000002
## 2 4205    GO:0000002
## 3 291     GO:0000002
## # … with 132,807 more rows
…
The result is an object that coordinates annotations on genes and sets

es

## class: BiocSet
## 
## es_element():
## # A tibble: 20,003 x 9
##   element Gene     SYMBOL baseMean log2FoldChange  lfcSE  stat   pvalue     padj
##   <chr>   <chr>    <chr>     <dbl>          <dbl>  <dbl> <dbl>    <dbl>    <dbl>
## 1 1890    ENSG000… TYMP       145.          1.23  0.199   6.18 6.58e-10  1.49e-8
## 2 4205    ENSG000… MEF2A     1566.          0.529 0.0919  5.76 8.45e- 9  1.64e-7
## 3 291     ENSG000… SLC25…     361.          0.660 0.142   4.65 3.35e- 6  4.15e-5
## # … with 20,000 more rows
## 
## es_set():
## # A tibble: 12,130 x 4
##   set      ONTOLOGY TERM               DEFINITION                               
##   <chr>    <chr>    <chr>              <chr>                                    
## 1 GO:0000… BP       mitochondrial gen… The maintenance of the structure and int…
## 2 GO:0000… BP       reproduction       The production of new individuals that c…
## 3 GO:0000… BP       single strand bre… The repair of single strand breaks in DN…
## # … with 12,127 more rows
## 
## es_elementset() <active>:
## # A tibble: 132,810 x 2
##   element set       
##   <chr>   <chr>     
## 1 1890    GO:0000002
## 2 4205    GO:0000002
## 3 291     GO:0000002
## # … with 132,807 more rows

The individual tables are easily manipulated

es_set(es) %>%
  dplyr::filter(startsWith(TERM, "mitochondrial"))

## # A tibble: 70 x 4
##    set     ONTOLOGY TERM                      DEFINITION                        
##    <chr>   <chr>    <chr>                     <chr>                             
##  1 GO:000… BP       mitochondrial genome mai… The maintenance of the structure …
##  2 GO:000… BP       mitochondrial fission     The division of a mitochondrion w…
##  3 GO:000… BP       mitochondrial RNA catabo… The chemical reactions and pathwa…
##  4 GO:000… BP       mitochondrial mRNA catab… The chemical reactions and pathwa…
##  5 GO:000… BP       mitochondrial RNA metabo… The chemical reactions and pathwa…
##  6 GO:000… BP       mitochondrial RNA proces… The conversion of a primary RNA m…
##  7 GO:000… BP       mitochondrial RNA 5'-end… Any process involved in forming t…
##  8 GO:000… BP       mitochondrial RNA 3'-end… Any process involved in forming t…
##  9 GO:000… BP       mitochondrial electron t… The transfer of electrons from NA…
## 10 GO:000… BP       mitochondrial electron t… The transfer of electrons from su…
## # … with 60 more rows
…
goids <-
  es_set(es) %>%
  dplyr::filter(startsWith(TERM, "mitochondrial")) %>%
  pull(set)
mitochondrial_genes <-
  es %>%
  filter_elementset(set %in% goids)

Sets can be converted to ‘denormalized’ tibbles

mitochondrial_genes %>%
  tibble_from_elementset()

## # A tibble: 764 x 13
##    element set   ONTOLOGY TERM  DEFINITION Gene  SYMBOL baseMean log2FoldChange
##    <chr>   <chr> <chr>    <chr> <chr>      <chr> <chr>     <dbl>          <dbl>
##  1 1890    GO:0… BP       mito… The maint… ENSG… TYMP      145.           1.23 
##  2 4205    GO:0… BP       mito… The maint… ENSG… MEF2A    1566.           0.529
##  3 291     GO:0… BP       mito… The maint… ENSG… SLC25…    361.           0.660
##  4 10000   GO:0… BP       mito… The maint… ENSG… AKT3     1195.           0.327
##  5 9361    GO:0… BP       mito… The maint… ENSG… LONP1    1215.          -0.326
##  6 55186   GO:0… BP       mito… The maint… ENSG… SLC25…   2065.           0.145
##  7 92667   GO:0… BP       mito… The maint… ENSG… MGME1     290.           0.202
##  8 4976    GO:0… BP       mito… The maint… ENSG… OPA1     1309.           0.123
##  9 4976    GO:0… BP       mito… The maint… LRG_… LRG_3…      0           NA    
## 10 84275   GO:0… BP       mito… The maint… ENSG… SLC25…     65.9          0.305
## # … with 754 more rows, and 4 more variables: lfcSE <dbl>, stat <dbl>,
## #   pvalue <dbl>, padj <dbl>
…
