Chapter 3 Gene symbol mapping | Bioconductor Annotation Resources
…
It’s easy to find the ‘most differentially expressed’ (smallest adjusted P-value?) genes, e.g.,

toptbl <-
  rowData(airway) %>%
  as_tibble(rownames = "Gene") %>%
  arrange(padj)
toptbl

## # A tibble: 64,102 x 7
##    Gene            baseMean log2FoldChange  lfcSE  stat    pvalue      padj
##    <chr>              <dbl>          <dbl>  <dbl> <dbl>     <dbl>     <dbl>
##  1 ENSG00000152583     997.           4.57 0.184   24.9 2.22e-136 4.01e-132
##  2 ENSG00000165995     495.           3.29 0.133   24.7 7.84e-135 7.07e-131
##  3 ENSG00000120129    3409.           2.95 0.121   24.3 3.67e-130 2.20e-126
##  4 ENSG00000101347   12703.           3.77 0.155   24.2 9.58e-130 4.32e-126
##  5 ENSG00000189221    2342.           3.35 0.142   23.7 1.10e-123 3.96e-120
##  6 ENSG00000211445   12286.           3.73 0.166   22.5 4.62e-112 1.39e-108
##  7 ENSG00000157214    3009.           1.98 0.0900  22.0 5.77e-107 1.49e-103
##  8 ENSG00000162614    5393.           2.04 0.0942  21.6 1.32e-103 2.98e-100
##  9 ENSG00000125148    3656.           2.21 0.106   20.9 2.90e- 97 5.81e- 94
## 10 ENSG00000154734   30315.           2.35 0.116   20.3 3.26e- 91 5.88e- 88
## # … with 64,092 more rows
…
mapIds(EnsDb.Hsapiens.v75, toptbl$Gene, "SYMBOL", "GENEID") %>%
  head()

## ENSG00000152583 ENSG00000165995 ENSG00000120129 ENSG00000101347 ENSG00000189221 
##       "SPARCL1"        "CACNB2"         "DUSP1"        "SAMHD1"          "MAOA" 
## ENSG00000211445 
##          "GPX3"

toptbl %>%
  mutate(
    SYMBOL = mapIds(x = EnsDb.Hsapiens.v75, Gene, "SYMBOL", "GENEID")
  )

## # A tibble: 64,102 x 8
##    Gene          baseMean log2FoldChange  lfcSE  stat    pvalue      padj SYMBOL
##    <chr>            <dbl>          <dbl>  <dbl> <dbl>     <dbl>     <dbl> <chr> 
##  1 ENSG00000152…     997.           4.57 0.184   24.9 2.22e-136 4.01e-132 SPARC…
##  2 ENSG00000165…     495.           3.29 0.133   24.7 7.84e-135 7.07e-131 CACNB2
##  3 ENSG00000120…    3409.           2.95 0.121   24.3 3.67e-130 2.20e-126 DUSP1 
##  4 ENSG00000101…   12703.           3.77 0.155   24.2 9.58e-130 4.32e-126 SAMHD1
##  5 ENSG00000189…    2342.           3.35 0.142   23.7 1.10e-123 3.96e-120 MAOA  
##  6 ENSG00000211…   12286.           3.73 0.166   22.5 4.62e-112 1.39e-108 GPX3  
##  7 ENSG00000157…    3009.           1.98 0.0900  22.0 5.77e-107 1.49e-103 STEAP2
##  8 ENSG00000162…    5393.           2.04 0.0942  21.6 1.32e-103 2.98e-100 NEXN  
##  9 ENSG00000125…    3656.           2.21 0.106   20.9 2.90e- 97 5.81e- 94 MT2A  
## 10 ENSG00000154…   30315.           2.35 0.116   20.3 3.26e- 91 5.88e- 88 ADAMT…
## # … with 64,092 more rows
…
## Warning: Problem with `mutate()` input `ENTREZID`.
## ℹ Unable to map 35866 of 64102 requested IDs.
## ℹ Input `ENTREZID` is `mapIds(x = EnsDb.Hsapiens.v75, Gene, "ENTREZID", "GENEID")`.

## Warning: Unable to map 35866 of 64102 requested IDs.

toptbl

## # A tibble: 64,102 x 9
##    Gene  SYMBOL ENTREZID baseMean log2FoldChange  lfcSE  stat    pvalue
##    <chr> <chr>     <int>    <dbl>          <dbl>  <dbl> <dbl>     <dbl>
##  1 ENSG… SPARC…     8404     997.           4.57 0.184   24.9 2.22e-136
##  2 ENSG… CACNB2      783     495.           3.29 0.133   24.7 7.84e-135
##  3 ENSG… DUSP1      1843    3409.           2.95 0.121   24.3 3.67e-130
##  4 ENSG… SAMHD1    25939   12703.           3.77 0.155   24.2 9.58e-130
##  5 ENSG… MAOA       4128    2342.           3.35 0.142   23.7 1.10e-123
##  6 ENSG… GPX3       2878   12286.           3.73 0.166   22.5 4.62e-112
##  7 ENSG… STEAP2   261729    3009.           1.98 0.0900  22.0 5.77e-107
##  8 ENSG… NEXN      91624    5393.           2.04 0.0942  21.6 1.32e-103
##  9 ENSG… MT2A       4502    3656.           2.21 0.106   20.9 2.90e- 97
## 10 ENSG… ADAMT…     9510   30315.           2.35 0.116   20.3 3.26e- 91
## # … with 64,092 more rows, and 1 more variable: padj <dbl>
…
